{
  "type":"postgres",
  "host":"localhost",
  "port":5432,
  "username":"postgres",
  "password":"postgres",
  "database":"gostack_gobarber",
  "entities":[
    "./src/models/*.ts"
  ],
  "migrations":[
    "./src/database/migrations/*.ts"
  ],
  "cli": {
    "migrationsDir": "./src/database/migrations"
  }
}
